%!PS-Adobe-3.0 EPSF-3.0
%%Creator: cairo 1.14.0 (http://cairographics.org)
%%CreationDate: Thu Sep 15 01:40:21 2016
%%Pages: 1
%%DocumentData: Clean7Bit
%%LanguageLevel: 2
%%BoundingBox: 0 766 114 842
%%EndComments
%%BeginProlog
save
50 dict begin
/q { gsave } bind def
/Q { grestore } bind def
/cm { 6 array astore concat } bind def
/w { setlinewidth } bind def
/J { setlinecap } bind def
/j { setlinejoin } bind def
/M { setmiterlimit } bind def
/d { setdash } bind def
/m { moveto } bind def
/l { lineto } bind def
/c { curveto } bind def
/h { closepath } bind def
/re { exch dup neg 3 1 roll 5 3 roll moveto 0 rlineto
      0 exch rlineto 0 rlineto closepath } bind def
/S { stroke } bind def
/f { fill } bind def
/f* { eofill } bind def
/n { newpath } bind def
/W { clip } bind def
/W* { eoclip } bind def
/BT { } bind def
/ET { } bind def
/pdfmark where { pop globaldict /?pdfmark /exec load put }
    { globaldict begin /?pdfmark /pop load def /pdfmark
    /cleartomark load def end } ifelse
/BDC { mark 3 1 roll /BDC pdfmark } bind def
/EMC { mark /EMC pdfmark } bind def
/cairo_store_point { /cairo_point_y exch def /cairo_point_x exch def } def
/Tj { show currentpoint cairo_store_point } bind def
/TJ {
  {
    dup
    type /stringtype eq
    { show } { -0.001 mul 0 cairo_font_matrix dtransform rmoveto } ifelse
  } forall
  currentpoint cairo_store_point
} bind def
/cairo_selectfont { cairo_font_matrix aload pop pop pop 0 0 6 array astore
    cairo_font exch selectfont cairo_point_x cairo_point_y moveto } bind def
/Tf { pop /cairo_font exch def /cairo_font_matrix where
      { pop cairo_selectfont } if } bind def
/Td { matrix translate cairo_font_matrix matrix concatmatrix dup
      /cairo_font_matrix exch def dup 4 get exch 5 get cairo_store_point
      /cairo_font where { pop cairo_selectfont } if } bind def
/Tm { 2 copy 8 2 roll 6 array astore /cairo_font_matrix exch def
      cairo_store_point /cairo_font where { pop cairo_selectfont } if } bind def
/g { setgray } bind def
/rg { setrgbcolor } bind def
/d1 { setcachedevice } bind def
%%EndProlog
%%BeginSetup
%%EndSetup
%%Page: 1 1
%%BeginPageSetup
%%PageBoundingBox: 0 766 114 842
%%EndPageSetup
q 0 766 114 76 rectclip q
1 g
5.086 779.484 m 5.086 785.862 5.391 791.081 5.766 791.081 c 6.141 791.081
 7.578 790.687 8.965 790.206 c 11.484 789.327 l 11.484 767.882 l 5.086 767.882
 l h
21.508 769.55 m 21.797 770.468 22.859 773.616 23.867 776.55 c 25.672 781.804
 25.715 781.851 26.594 779.632 c 27.082 778.394 27.484 777.042 27.484 776.632
 c 27.484 776.218 28.188 775.882 29.047 775.882 c 30.512 775.882 30.547 
776.093 29.574 779.284 c 29.008 781.151 28.262 783.546 27.922 784.601 c 
27.316 786.472 27.383 786.503 30.766 785.964 c 32.668 785.659 34.328 785.308
 34.453 785.183 c 34.762 784.87 39.465 769.241 39.477 768.484 c 39.48 768.151
 37.906 767.882 35.973 767.882 c 32.594 767.882 32.441 767.987 31.938 770.683
 c 31.559 772.706 30.996 773.484 29.906 773.484 c 28.586 773.484 28.488 
773.159 29.141 770.89 c 29.551 769.46 29.883 768.202 29.883 768.089 c 29.883
 767.976 27.879 767.882 25.43 767.882 c 21.281 767.882 21.012 767.995 21.508
 769.55 c h
41.883 776.284 m 41.883 784.683 l 45.086 784.683 l 48.285 784.683 48.285
 784.683 48.285 781.484 c 48.285 778.816 48.551 778.284 49.883 778.284 c
 51.219 778.284 51.484 778.816 51.484 781.484 c 51.484 784.683 51.484 784.683
 54.684 784.683 c 57.883 784.683 l 57.883 767.882 l 51.484 767.882 l 51.484
 771.941 l 51.484 775.374 51.27 775.96 50.086 775.734 c 49.031 775.534 48.625
 774.534 48.441 771.675 c 48.195 767.882 l 41.883 767.882 l h
70.906 769.288 m 70.125 770.081 67.148 774.409 64.293 778.905 c 59.59 786.312
 58.871 787.085 56.691 787.085 c 51.016 787.089 32.082 788.804 25.086 789.948
 c 20.906 790.632 13.613 792.097 8.883 793.206 c 0.285 795.222 l 0.285 804.706
 l 0.285 809.921 0.586 814.374 0.953 814.601 c 2.223 815.386 20.719 819.831
 27.824 821.062 c 31.75 821.741 35.129 822.46 35.332 822.667 c 35.539 822.87
 34.16 825.405 32.273 828.3 c 28.844 833.566 l 25.66 828.726 l 23.91 826.062
 22.164 823.882 21.781 823.882 c 21.398 823.882 21.086 824.066 21.086 824.292
 c 21.086 824.519 22.523 826.812 24.285 829.39 c 26.043 831.968 27.484 834.484
 27.484 834.98 c 27.484 837.112 25.82 835.476 21.883 829.484 c 19.574 825.964
 17.367 823.081 16.984 823.081 c 16.598 823.081 16.285 823.276 16.285 823.515
 c 16.285 823.749 18.48 827.21 21.16 831.198 c 24.203 835.718 25.754 838.734
 25.285 839.202 c 24.816 839.671 22.211 836.476 18.359 830.718 c 14.961 
825.64 11.824 821.484 11.387 821.484 c 10.949 821.484 10.855 821.933 11.184
 822.484 c 11.508 823.034 14.238 827.175 17.246 831.683 c 21.449 837.98 
22.391 839.878 21.301 839.866 c 20.383 839.859 17.668 836.484 13.574 830.269
 c 10.105 824.995 6.934 820.683 6.527 820.683 c 6.121 820.683 6.055 821.132
 6.383 821.683 c 6.707 822.234 9.43 826.362 12.43 830.855 c 15.43 835.351
 17.883 839.222 17.883 839.456 c 17.883 839.691 17.395 839.882 16.793 839.882
 c 16.191 839.882 12.688 835.21 9 829.495 c 5.316 823.78 1.84 818.929 1.281
 818.714 c -0.047 818.206 2.352 822.339 9.434 832.761 c 15.086 841.081 l
 28.895 841.304 l 42.703 841.523 l 48.312 832.804 l 53.926 824.085 l 63.703
 823.53 l 79.574 822.624 93.871 820.163 108.484 815.819 c 113.883 814.214
 l 113.883 795.374 l 105.285 793.234 l 94.816 790.632 84.25 788.683 80.598
 788.683 c 79.105 788.683 77.883 788.304 77.883 787.839 c 77.883 787.011
 84.078 777.484 84.617 777.484 c 84.766 777.484 86.254 779.464 87.922 781.882
 c 89.586 784.304 91.25 786.284 91.617 786.284 c 91.984 786.284 92.285 786.12
 92.285 785.917 c 92.285 785.718 90.844 783.499 89.086 780.987 c 86.055 
776.663 85.137 774.284 86.492 774.284 c 86.824 774.284 88.676 776.609 90.602
 779.452 c 94.48 785.171 97.055 788.179 97.605 787.628 c 97.805 787.433 
95.594 783.976 92.691 779.952 c 89.793 775.929 87.637 772.28 87.906 771.847
 c 88.176 771.413 88.676 771.23 89.023 771.444 c 89.367 771.655 92.266 775.624
 95.469 780.257 c 98.668 784.89 101.602 788.683 101.984 788.683 c 102.371
 788.683 102.684 788.503 102.684 788.284 c 102.684 788.066 100.059 784.194
 96.852 779.683 c 93.645 775.175 90.742 771.034 90.402 770.484 c 90.02 769.855
 90.234 769.484 90.988 769.484 c 91.645 769.484 95.469 774.163 99.484 779.882
 c 103.5 785.605 107.145 790.284 107.582 790.284 c 108.02 790.284 108.105
 789.831 107.766 789.284 c 107.43 788.734 104.156 784.023 100.492 778.819
 c 96.012 772.452 94.297 769.444 95.254 769.628 c 96.418 769.855 102.754
 778.292 110.797 790.319 c 111.52 791.401 112.355 792.046 112.656 791.757
 c 112.953 791.472 109.621 786.069 105.25 779.757 c 97.297 768.284 l 84.812
 768.062 l 73.656 767.866 72.176 767.995 70.906 769.288 c h
71.965 773.812 m 65.301 784.23 63.188 787.081 62.145 787.081 c 61.238 787.081
 61.207 786.745 61.98 785.284 c 62.508 784.292 65.047 780.331 67.629 776.484
 c 70.215 772.632 72.867 769.484 73.531 769.484 c 74.41 769.484 73.988 770.651
 71.965 773.812 c h
78.684 769.909 m 78.684 770.144 76.156 774.105 73.066 778.71 c 69.977 783.316
 66.914 787.081 66.262 787.081 c 65.188 787.081 66.863 784.144 75.188 771.437
 c 75.895 770.362 76.969 769.484 77.578 769.484 c 78.188 769.484 78.684 
769.675 78.684 769.909 c h
77.062 779.249 m 74.711 782.898 72.352 786.374 71.816 786.976 c 71.281 
787.577 70.457 787.937 69.988 787.776 c 69.52 787.616 71.516 783.769 74.418
 779.23 c 78.012 773.612 79.961 771.237 80.516 771.796 c 81.074 772.351 
79.969 774.73 77.062 779.249 c h
85.086 772.73 m 85.086 773.636 84.727 774.155 84.285 773.882 c 83.844 773.612
 83.484 772.87 83.484 772.237 c 83.484 771.601 83.844 771.081 84.285 771.081
 c 84.727 771.081 85.086 771.823 85.086 772.73 c h
79.73 781.765 m 77.324 785.589 75.359 787.878 74.48 787.878 c 73.387 787.882
 74.078 786.37 77.617 781.058 c 83.301 772.519 85.164 773.144 79.73 781.765
 c h
46.59 804.081 m 46.684 814.284 l 50.684 814.284 l 50.684 789.484 l 60.285
 789.484 l 60.285 820.683 l 51.684 820.675 l 46.953 820.671 41.734 820.441
 40.086 820.171 c 37.086 819.675 l 37.086 790.366 l 41.285 790.124 l 45.188
 789.901 45.52 790.026 45.988 791.882 c 46.27 792.984 46.539 798.472 46.59
 804.081 c h
31.484 805.089 m 31.484 819.093 l 24.363 814.687 l 20.445 812.265 17.027
 810.284 16.762 810.284 c 16.5 810.284 16.285 811.542 16.285 813.081 c 16.285
 815.409 15.996 815.882 14.578 815.882 c 13.637 815.882 11.48 815.468 9.777
 814.956 c 6.684 814.03 l 6.684 804.956 l 6.684 799.968 6.887 795.882 7.137
 795.882 c 7.387 795.882 10.625 797.675 14.336 799.87 c 21.086 803.855 l
 21.086 792.78 l 24.883 792.269 l 26.977 791.987 29.043 791.636 29.484 791.484
 c 29.926 791.331 30.555 791.183 30.883 791.148 c 31.215 791.112 31.484 
797.386 31.484 805.089 c h
88.785 791.882 m 90.684 791.882 l 90.684 804.636 l 90.684 811.651 90.414
 817.542 90.086 817.734 c 89.754 817.925 87.773 818.327 85.684 818.632 c
 81.883 819.183 l 81.883 790.882 l 84.383 791.382 l 85.758 791.659 87.738
 791.882 88.785 791.882 c h
77.086 807.097 m 77.086 819.913 l 74.883 819.413 l 70.496 818.413 67.18
 816.167 65.602 813.124 c 64.73 811.444 64.02 808.546 64.02 806.679 c 64.02
 804.784 64.703 802.093 65.57 800.585 c 66.469 799.019 68.613 797.128 70.672
 796.081 c 72.625 795.093 74.867 794.284 75.652 794.284 c 76.969 794.284
 77.086 795.323 77.086 807.097 c h
101.578 797.413 m 103.391 798.237 105.461 799.749 106.18 800.773 c 106.898
 801.8 107.484 803.737 107.484 805.081 c 107.484 807.526 105.852 810.585
 103.52 812.499 c 101.848 813.874 98.672 815.562 96.484 816.237 c 94.684
 816.792 l 94.684 806.335 l 94.684 796.023 94.711 795.882 96.484 795.901
 c 97.477 795.909 99.766 796.593 101.578 797.413 c h
39.484 823.058 m 39.484 823.484 37.66 826.632 35.426 830.05 c 33.195 833.468
 31.223 836.409 31.047 836.589 c 30.867 836.765 30.516 836.374 30.262 835.718
 c 30 835.03 31.535 831.909 33.855 828.401 c 36.086 825.038 38.266 822.284
 38.695 822.284 c 39.129 822.284 39.484 822.632 39.484 823.058 c h
38.977 831.284 m 36.07 835.792 33.562 839.624 33.406 839.796 c 33.25 839.972
 32.918 839.573 32.664 838.917 c 32.402 838.234 34.184 834.609 36.844 830.429
 c 39.73 825.89 42.008 823.124 42.871 823.109 c 43.93 823.089 42.996 825.042
 38.977 831.284 c h
47.801 824.081 m 47.484 824.632 45.086 828.413 42.473 832.484 c 39.859 
836.554 37.219 839.882 36.602 839.882 c 35.988 839.882 35.484 839.698 35.484
 839.476 c 35.484 839.253 37.879 835.472 40.809 831.077 c 43.734 826.679
 46.637 823.081 47.254 823.081 c 47.93 823.081 48.148 823.484 47.801 824.081
 c h
50.172 827.284 m 44.848 835.78 41.73 839.882 40.609 839.882 c 39.852 839.882
 39.613 839.503 39.98 838.882 c 40.305 838.331 42.676 834.734 45.25 830.882
 c 47.82 827.034 50.461 823.882 51.117 823.882 c 52.02 823.882 51.793 824.698
 50.172 827.284 c h
29.477 839.101 m 29.027 839.823 28.73 839.804 28.238 839.007 c 27.395 837.644
 28.223 836.3 29.266 837.343 c 29.707 837.784 29.801 838.573 29.477 839.101
 c h
13.883 782.284 m 13.883 788.609 13.91 788.683 15.922 788.683 c 17.043 788.683
 18.84 787.8 19.922 786.718 c 21.332 785.308 21.883 783.882 21.883 781.644
 c 21.883 779.644 21.363 778.058 20.422 777.206 c 19.617 776.48 17.816 775.882
 16.422 775.882 c 13.883 775.882 l h
13.883 782.284 m f
Q Q
showpage
%%Trailer
end restore
%%EOF
