import common;

pen thick = linewidth(2pt);

// coarse grid
fill((-.3,6)--(9,6)--(9,7)--(-.3,7)--cycle, unnblue1);
fill((9,6)--(10.3,6)--(10.3,7)--(9,7)--cycle, lightred);
draw((-.3,6)--(10.3,6), thick + unnblue4);
draw((10.3,7)--(-.3,7), thick + unnblue4);
for (int i = 0; i < 10; i += 3)
    draw((i,6)--(i,7), thick + unnblue4);

// fine grid
fill((5,0)--(12.3,0)--(12.3,1)--(5,1)--cycle, unnblue1);
fill((3.7,0)--(5,0)--(5,1)--(3.7,1)--cycle, lightred);
draw((3.7,0)--(12.3,0), thick + unnblue4);
draw((12.3,1)--(3.7,1), thick + unnblue4);
for (int i = 4; i < 13; i += 1)
    draw((i,0)--(i,1), thick + unnblue4);

// aux grid
fill((2,3)--(10,3)--(10,4)--(2,4)--cycle, orange1);
fill((0.7,3)--(2,3)--(2,4)--(0.7,4)--cycle, lightred);
fill((10,3)--(11.3,3)--(11.3,4)--(10,4)--cycle, lightred);
draw((0.7,3)--(11.3,3), thick + orange4);
draw((11.3,4)--(0.7,4), thick + orange4);
for (int i = 1; i < 12; i += 1)
    draw((i,3)--(i,4), thick + orange4);


// arrows
// fg2cg
fill((5.7,1.2)--(6.3,1.2)--(6.3,2.8)..(6.8,3.5)..(6.3,4.2)--(6.3,4.6)--(6.6,4.6)--(6,5.8)--(5.4,4.6)--(5.7,4.6)--(5.7,4.2)..(6.2,3.5)..(5.7,2.8)--cycle, green1);
draw((5.7,1.2)--(6.3,1.2)--(6.3,2.8)..(6.8,3.5)..(6.3,4.2)--(6.3,4.6)--(6.6,4.6)--(6,5.8)--(5.4,4.6)--(5.7,4.6)--(5.7,4.2)..(6.2,3.5)..(5.7,2.8)--cycle, thick + green4);
// cg2ag
fill((2.7,5.8)--(3.3,5.8)--(3.3,5.4)--(3.6,5.4)--(3,4.2)--(2.4,5.4)--(2.7,5.4)--cycle, green1);
draw((2.7,5.8)--(3.3,5.8)--(3.3,5.4)--(3.6,5.4)--(3,4.2)--(2.4,5.4)--(2.7,5.4)--cycle, thick + green4);
// ag2fg
fill((8.7,2.8)--(9.3,2.8)--(9.3,2.4)--(9.6,2.4)--(9,1.2)--(8.4,2.4)--(8.7,2.4)--cycle, green1);
draw((8.7,2.8)--(9.3,2.8)--(9.3,2.4)--(9.6,2.4)--(9,1.2)--(8.4,2.4)--(8.7,2.4)--cycle, thick + green4);

