%!PS-Adobe-3.0 EPSF-3.0
%%Creator: cairo 1.14.0 (http://cairographics.org)
%%CreationDate: Sat Sep 17 20:05:20 2016
%%Pages: 1
%%DocumentData: Clean7Bit
%%LanguageLevel: 2
%%BoundingBox: 1 467 184 520
%%EndComments
%%BeginProlog
save
50 dict begin
/q { gsave } bind def
/Q { grestore } bind def
/cm { 6 array astore concat } bind def
/w { setlinewidth } bind def
/J { setlinecap } bind def
/j { setlinejoin } bind def
/M { setmiterlimit } bind def
/d { setdash } bind def
/m { moveto } bind def
/l { lineto } bind def
/c { curveto } bind def
/h { closepath } bind def
/re { exch dup neg 3 1 roll 5 3 roll moveto 0 rlineto
      0 exch rlineto 0 rlineto closepath } bind def
/S { stroke } bind def
/f { fill } bind def
/f* { eofill } bind def
/n { newpath } bind def
/W { clip } bind def
/W* { eoclip } bind def
/BT { } bind def
/ET { } bind def
/pdfmark where { pop globaldict /?pdfmark /exec load put }
    { globaldict begin /?pdfmark /pop load def /pdfmark
    /cleartomark load def end } ifelse
/BDC { mark 3 1 roll /BDC pdfmark } bind def
/EMC { mark /EMC pdfmark } bind def
/cairo_store_point { /cairo_point_y exch def /cairo_point_x exch def } def
/Tj { show currentpoint cairo_store_point } bind def
/TJ {
  {
    dup
    type /stringtype eq
    { show } { -0.001 mul 0 cairo_font_matrix dtransform rmoveto } ifelse
  } forall
  currentpoint cairo_store_point
} bind def
/cairo_selectfont { cairo_font_matrix aload pop pop pop 0 0 6 array astore
    cairo_font exch selectfont cairo_point_x cairo_point_y moveto } bind def
/Tf { pop /cairo_font exch def /cairo_font_matrix where
      { pop cairo_selectfont } if } bind def
/Td { matrix translate cairo_font_matrix matrix concatmatrix dup
      /cairo_font_matrix exch def dup 4 get exch 5 get cairo_store_point
      /cairo_font where { pop cairo_selectfont } if } bind def
/Tm { 2 copy 8 2 roll 6 array astore /cairo_font_matrix exch def
      cairo_store_point /cairo_font where { pop cairo_selectfont } if } bind def
/g { setgray } bind def
/rg { setrgbcolor } bind def
/d1 { setcachedevice } bind def
%%EndProlog
%%BeginSetup
%%EndSetup
%%Page: 1 1
%%BeginPageSetup
%%PageBoundingBox: 1 467 184 520
%%EndPageSetup
q 1 467 183 53 rectclip q
1 g
65.832 502.426 m 65.973 502.426 l 67.941 507.164 l 70.305 507.164 l 66.578
 499.325 l 66.277 498.703 65.934 498.246 65.555 497.938 c 65.176 497.637
 64.715 497.485 64.188 497.485 c 63.539 497.485 62.961 497.594 62.465 497.813
 c 62.941 499.61 l 63.074 499.551 63.215 499.508 63.359 499.477 c 63.508
 499.453 63.645 499.438 63.777 499.438 c 64.254 499.438 64.551 499.614 64.684
 499.961 c 64.797 500.242 l 60.922 507.164 l 63.496 507.164 l 65.832 502.426
 l f
75.09 503.457 m 79.234 503.457 l 79.234 507.164 l 81.371 507.164 l 81.371
 497.684 l 79.234 497.684 l 79.234 501.489 l 75.09 501.489 l 75.09 497.684
 l 72.953 497.684 l 72.953 507.164 l 75.09 507.164 l 75.09 503.457 l f
86.738 500.852 m 91.324 507.164 l 93.191 507.164 l 93.191 497.684 l 91.086
 497.684 l 91.086 503.641 l 86.727 497.684 l 84.645 497.684 l 84.645 507.164
 l 86.738 507.164 l 86.738 500.852 l f
101.082 499.5 m 102.016 499.5 102.48 499.867 102.48 500.61 c 102.48 500.973
 102.355 501.246 102.109 501.426 c 101.871 501.61 101.52 501.7 101.066 501.7
 c 98.574 501.7 l 98.574 499.5 l h
100.738 503.43 m 101.098 503.43 101.383 503.512 101.578 503.692 c 101.785
 503.867 101.887 504.102 101.887 504.403 c 101.887 505.035 101.48 505.352
 100.668 505.352 c 98.574 505.352 l 98.574 503.43 l h
103.098 506.469 m 103.664 506.008 103.949 505.375 103.949 504.575 c 103.949
 504.176 103.867 503.825 103.703 503.512 c 103.539 503.203 103.316 502.973
 103.031 502.821 c 103.031 502.692 l 103.492 502.543 103.859 502.27 104.145
 501.883 c 104.422 501.489 104.562 501.032 104.562 500.512 c 104.562 500.125
 104.488 499.762 104.359 499.414 c 104.219 499.071 104.008 498.774 103.719
 498.516 c 103.434 498.262 103.066 498.059 102.621 497.91 c 102.184 497.762
 101.652 497.684 101.047 497.684 c 96.465 497.684 l 96.465 507.164 l 100.656
 507.164 l 101.711 507.164 102.527 506.934 103.098 506.469 c f
114.441 505.25 m 109.449 505.25 l 109.449 503.469 l 113.902 503.469 l 113.902
 501.617 l 109.449 501.617 l 109.449 499.594 l 114.684 499.594 l 114.684
 497.684 l 107.355 497.684 l 107.355 507.164 l 114.441 507.164 l 114.441
 505.25 l f
121.664 502.157 m 122.23 502.157 122.676 502.301 122.996 502.582 c 123.312
 502.864 123.477 503.246 123.477 503.723 c 123.477 504.2 123.332 504.571
 123.039 504.848 c 122.754 505.129 122.324 505.266 121.746 505.266 c 119.742
 505.266 l 119.742 502.157 l h
123.375 506.918 m 123.836 506.746 124.234 506.516 124.57 506.223 c 124.906
 505.926 125.164 505.567 125.344 505.149 c 125.52 504.727 125.617 504.258
 125.617 503.739 c 125.617 503.192 125.516 502.707 125.305 502.274 c 125.105
 501.844 124.828 501.481 124.469 501.184 c 124.117 500.887 123.703 500.664
 123.223 500.508 c 122.734 500.352 122.219 500.274 121.664 500.274 c 119.742
 500.274 l 119.742 497.684 l 117.617 497.684 l 117.617 507.164 l 121.84 
507.164 l 122.398 507.164 122.91 507.082 123.375 506.918 c f
134.605 505.188 m 134.18 505.34 133.699 505.418 133.172 505.418 c 132.707
 505.418 132.293 505.352 131.914 505.203 c 131.551 505.059 131.23 504.848
 130.965 504.582 c 130.703 504.313 130.496 503.992 130.355 503.625 c 130.215
 503.258 130.141 502.86 130.141 502.426 c 130.141 501.969 130.215 501.563
 130.363 501.192 c 130.512 500.825 130.715 500.512 130.98 500.25 c 131.242
 499.992 131.562 499.789 131.922 499.645 c 132.293 499.5 132.699 499.426
 133.148 499.426 c 133.68 499.426 134.184 499.516 134.652 499.696 c 135.117
 499.887 135.535 500.153 135.902 500.5 c 137.105 499.016 l 136.027 497.996
 134.672 497.485 133.027 497.485 c 132.293 497.485 131.621 497.602 131.008
 497.836 c 130.395 498.067 129.867 498.395 129.43 498.821 c 128.996 499.254
 128.648 499.766 128.406 500.375 c 128.16 500.977 128.035 501.653 128.035
 502.399 c 128.035 503.075 128.156 503.715 128.398 504.317 c 128.637 504.922
 128.988 505.453 129.438 505.903 c 129.887 506.356 130.438 506.715 131.082
 506.973 c 131.719 507.231 132.445 507.36 133.258 507.36 c 133.992 507.36
 134.672 507.25 135.281 507.028 c 135.895 506.805 136.441 506.481 136.922
 506.059 c 135.746 504.516 l 135.418 504.817 135.035 505.035 134.605 505.188
 c f
141.992 500.852 m 146.578 507.164 l 148.445 507.164 l 148.445 497.684 l
 146.34 497.684 l 146.34 503.641 l 141.98 497.684 l 139.895 497.684 l 139.895
 507.164 l 141.992 507.164 l 141.992 500.852 l f
159.816 505.239 m 156.57 505.239 l 156.57 497.684 l 154.465 497.684 l 154.465
 505.239 l 151.223 505.239 l 151.223 507.164 l 159.816 507.164 l 159.816
 505.239 l f
169.68 505.25 m 164.688 505.25 l 164.688 503.469 l 169.145 503.469 l 169.145
 501.617 l 164.688 501.617 l 164.688 499.594 l 169.918 499.594 l 169.918
 497.684 l 162.59 497.684 l 162.59 507.164 l 169.68 507.164 l 169.68 505.25
 l f
180.949 505.239 m 177.707 505.239 l 177.707 497.684 l 175.598 497.684 l
 175.598 505.239 l 172.359 505.239 l 172.359 507.164 l 180.949 507.164 l
 180.949 505.239 l f
70.5 481.731 m 68.379 481.731 l 68.379 489.317 l 65.492 489.317 l 65.492
 488.504 65.484 487.758 65.473 487.063 c 65.457 486.371 65.41 485.735 65.344
 485.168 c 65.273 484.594 65.16 484.086 65.016 483.637 c 64.871 483.192 
64.672 482.805 64.418 482.485 c 64.168 482.18 63.867 481.957 63.512 481.797
 c 63.152 481.645 62.734 481.567 62.254 481.567 c 61.949 481.567 61.688 
481.59 61.449 481.637 c 61.223 481.684 60.992 481.762 60.766 481.867 c 61.242
 483.688 l 61.359 483.645 61.48 483.602 61.602 483.578 c 61.723 483.563 
61.836 483.547 61.941 483.547 c 62.129 483.547 62.289 483.578 62.43 483.653
 c 62.562 483.723 62.688 483.848 62.789 484.028 c 62.922 484.235 63.023 
484.492 63.102 484.793 c 63.176 485.09 63.23 485.457 63.277 485.891 c 63.32
 486.321 63.344 486.821 63.352 487.41 c 63.367 487.992 63.367 488.672 63.367
 489.446 c 63.367 491.215 l 70.5 491.215 l 70.5 481.731 l f
75.875 489.278 m 75.512 489.114 75.207 488.899 74.953 488.629 c 74.703 
488.352 74.516 488.032 74.383 487.66 c 74.254 487.297 74.188 486.899 74.188
 486.473 c 74.188 486.051 74.254 485.649 74.383 485.274 c 74.516 484.907
 74.707 484.586 74.961 484.309 c 75.219 484.039 75.523 483.821 75.883 483.668
 c 76.242 483.512 76.648 483.434 77.102 483.434 c 77.562 483.434 77.973 
483.516 78.336 483.676 c 78.703 483.832 79.008 484.051 79.262 484.332 c 
79.508 484.606 79.691 484.934 79.824 485.297 c 79.949 485.672 80.012 486.059
 80.012 486.473 c 80.012 486.907 79.945 487.313 79.816 487.684 c 79.68 488.055
 79.488 488.379 79.242 488.653 c 78.996 488.93 78.688 489.141 78.32 489.289
 c 77.957 489.442 77.551 489.516 77.102 489.516 c 76.648 489.516 76.238 
489.438 75.875 489.278 c h
79.152 491.039 m 79.77 490.789 80.301 490.442 80.742 489.996 c 81.184 489.555
 81.523 489.032 81.766 488.438 c 82.016 487.832 82.137 487.184 82.137 486.473
 c 82.137 485.797 82.016 485.153 81.766 484.559 c 81.523 483.957 81.18 483.438
 80.734 482.985 c 80.293 482.539 79.762 482.184 79.141 481.93 c 78.523 481.668
 77.844 481.535 77.102 481.535 c 76.363 481.535 75.691 481.664 75.074 481.918
 c 74.465 482.16 73.934 482.508 73.484 482.953 c 73.035 483.395 72.691 483.922
 72.445 484.52 c 72.195 485.129 72.078 485.774 72.078 486.473 c 72.078 487.157
 72.195 487.797 72.445 488.399 c 72.691 489.004 73.035 489.528 73.484 489.969
 c 73.934 490.407 74.465 490.762 75.074 491.024 c 75.691 491.278 76.363 
491.407 77.102 491.407 c 77.844 491.407 78.527 491.289 79.152 491.039 c f
88.285 483.629 m 88.809 483.629 89.203 483.742 89.465 483.95 c 89.723 484.16
 89.855 484.446 89.855 484.805 c 89.855 485.184 89.723 485.473 89.457 485.672
 c 89.195 485.883 88.82 485.977 88.34 485.977 c 86.105 485.977 l 86.105 
483.629 l h
91.098 489.301 m 86.105 489.301 l 86.105 487.828 l 88.285 487.828 l 88.82
 487.828 89.316 487.774 89.773 487.649 c 90.23 487.524 90.625 487.34 90.949
 487.086 c 91.273 486.836 91.527 486.524 91.715 486.141 c 91.895 485.758
 91.988 485.317 91.988 484.805 c 91.988 484.313 91.895 483.875 91.715 483.496
 c 91.527 483.11 91.273 482.793 90.941 482.535 c 90.613 482.278 90.223 482.078
 89.77 481.942 c 89.316 481.805 88.82 481.731 88.285 481.731 c 83.992 481.731
 l 83.992 491.215 l 91.098 491.215 l 91.098 489.301 l f
99.449 485.485 m 98.195 489.09 l 98.055 489.09 l 96.777 485.485 l h
103.215 481.731 m 100.863 481.731 l 100.145 483.617 l 96.078 483.617 l 
95.379 481.731 l 93.066 481.731 l 96.965 491.227 l 99.297 491.227 l 103.215
 481.731 l f
106.055 488.086 m 106.055 487.446 106.199 486.965 106.484 486.645 c 106.773
 486.325 107.23 486.164 107.852 486.164 c 108.266 486.164 108.652 486.215
 109.016 486.332 c 109.367 486.438 109.688 486.59 109.973 486.789 c 109.973
 491.215 l 112.098 491.215 l 112.098 481.731 l 109.973 481.731 l 109.973
 484.907 l 109.309 484.485 108.48 484.27 107.496 484.27 c 106.965 484.27
 106.473 484.336 106.039 484.485 c 105.605 484.621 105.238 484.836 104.922
 485.137 c 104.613 485.438 104.371 485.809 104.203 486.262 c 104.031 486.711
 103.949 487.246 103.949 487.86 c 103.949 491.215 l 106.055 491.215 l 106.055
 488.086 l f
122.223 489.301 m 117.23 489.301 l 117.23 487.524 l 121.684 487.524 l 121.684
 485.672 l 117.23 485.672 l 117.23 483.645 l 122.465 483.645 l 122.465 481.731
 l 115.133 481.731 l 115.133 491.215 l 122.223 491.215 l 122.223 489.301
 l f
129.637 483.547 m 130.566 483.547 131.031 483.922 131.031 484.668 c 131.031
 485.024 130.91 485.293 130.664 485.473 c 130.422 485.66 130.07 485.754 
129.625 485.754 c 127.133 485.754 l 127.133 483.547 l h
129.289 487.481 m 129.652 487.481 129.934 487.567 130.137 487.746 c 130.34
 487.914 130.441 488.157 130.441 488.457 c 130.441 489.086 130.035 489.399
 129.223 489.399 c 127.133 489.399 l 127.133 487.481 l h
131.652 490.524 m 132.223 490.059 132.508 489.426 132.508 488.629 c 132.508
 488.227 132.426 487.875 132.258 487.567 c 132.09 487.25 131.867 487.02 
131.586 486.871 c 131.586 486.746 l 132.047 486.594 132.422 486.321 132.695
 485.93 c 132.977 485.539 133.113 485.082 133.113 484.563 c 133.113 484.18
 133.047 483.813 132.906 483.469 c 132.773 483.125 132.559 482.828 132.273
 482.567 c 131.984 482.317 131.621 482.11 131.176 481.961 c 130.734 481.809
 130.211 481.731 129.602 481.731 c 125.02 481.731 l 125.02 491.215 l 129.211
 491.215 l 130.266 491.215 131.082 490.985 131.652 490.524 c f
141.062 489.242 m 140.637 489.399 140.156 489.473 139.629 489.473 c 139.16
 489.473 138.746 489.399 138.375 489.258 c 138.004 489.11 137.684 488.903
 137.422 488.633 c 137.152 488.367 136.949 488.043 136.812 487.676 c 136.668
 487.313 136.602 486.907 136.602 486.473 c 136.602 486.024 136.668 485.614
 136.82 485.242 c 136.965 484.875 137.172 484.563 137.438 484.305 c 137.695
 484.039 138.016 483.84 138.383 483.696 c 138.75 483.551 139.156 483.473
 139.598 483.473 c 140.133 483.473 140.637 483.567 141.102 483.75 c 141.57
 483.934 141.988 484.203 142.355 484.547 c 143.559 483.067 l 142.484 482.047
 141.125 481.535 139.484 481.535 c 138.75 481.535 138.078 481.649 137.465
 481.883 c 136.852 482.11 136.32 482.442 135.887 482.875 c 135.445 483.309
 135.105 483.817 134.859 484.422 c 134.613 485.028 134.488 485.7 134.488
 486.446 c 134.488 487.125 134.613 487.77 134.855 488.371 c 135.094 488.973
 135.441 489.5 135.891 489.957 c 136.344 490.407 136.891 490.762 137.531
 491.024 c 138.176 491.278 138.898 491.407 139.711 491.407 c 140.445 491.407
 141.117 491.301 141.734 491.082 c 142.352 490.86 142.898 490.535 143.371
 490.11 c 142.199 488.571 l 141.867 488.864 141.492 489.086 141.062 489.242
 c f
147.035 487.606 m 148.066 487.723 l 150.742 491.215 l 153.359 491.215 l
 149.836 486.789 l 153.691 481.731 l 150.969 481.731 l 148.078 485.778 l
 147.035 485.778 l 147.035 481.731 l 144.938 481.731 l 144.938 491.215 l
 147.035 491.215 l 147.035 487.606 l f
157.953 489.278 m 157.594 489.114 157.285 488.899 157.035 488.629 c 156.785
 488.352 156.594 488.032 156.461 487.66 c 156.332 487.297 156.266 486.899
 156.266 486.473 c 156.266 486.051 156.332 485.649 156.461 485.274 c 156.594
 484.907 156.785 484.586 157.047 484.309 c 157.301 484.039 157.605 483.821
 157.965 483.668 c 158.32 483.512 158.727 483.434 159.18 483.434 c 159.645
 483.434 160.055 483.516 160.418 483.676 c 160.781 483.832 161.09 484.051
 161.34 484.332 c 161.586 484.606 161.773 484.934 161.902 485.297 c 162.031
 485.672 162.094 486.059 162.094 486.473 c 162.094 486.907 162.023 487.313
 161.895 487.684 c 161.766 488.055 161.574 488.379 161.32 488.653 c 161.074
 488.93 160.77 489.141 160.406 489.289 c 160.039 489.442 159.637 489.516
 159.18 489.516 c 158.727 489.516 158.32 489.438 157.953 489.278 c h
161.23 491.039 m 161.855 490.789 162.383 490.442 162.82 489.996 c 163.262
 489.555 163.605 489.032 163.848 488.438 c 164.094 487.832 164.215 487.184
 164.215 486.473 c 164.215 485.797 164.094 485.153 163.848 484.559 c 163.605
 483.957 163.254 483.438 162.816 482.985 c 162.375 482.539 161.836 482.184
 161.223 481.93 c 160.605 481.668 159.922 481.535 159.18 481.535 c 158.445
 481.535 157.77 481.664 157.156 481.918 c 156.543 482.16 156.012 482.508
 155.562 482.953 c 155.117 483.395 154.77 483.922 154.523 484.52 c 154.281
 485.129 154.16 485.774 154.16 486.473 c 154.16 487.157 154.281 487.797 
154.523 488.399 c 154.77 489.004 155.117 489.528 155.562 489.969 c 156.012
 490.407 156.543 490.762 157.156 491.024 c 157.77 491.278 158.445 491.407
 159.18 491.407 c 159.922 491.407 160.609 491.289 161.23 491.039 c f
173.109 489.289 m 168.059 489.289 l 168.059 481.731 l 165.934 481.731 l
 165.934 491.215 l 173.109 491.215 l 173.109 489.289 l f
177.055 489.278 m 176.691 489.114 176.387 488.899 176.129 488.629 c 175.879
 488.352 175.691 488.032 175.559 487.66 c 175.43 487.297 175.359 486.899
 175.359 486.473 c 175.359 486.051 175.43 485.649 175.559 485.274 c 175.691
 484.907 175.883 484.586 176.141 484.309 c 176.395 484.039 176.699 483.821
 177.062 483.668 c 177.414 483.512 177.824 483.434 178.273 483.434 c 178.734
 483.434 179.148 483.516 179.516 483.676 c 179.879 483.832 180.184 484.051
 180.438 484.332 c 180.688 484.606 180.875 484.934 181 485.297 c 181.129
 485.672 181.191 486.059 181.191 486.473 c 181.191 486.907 181.121 487.313
 180.992 487.684 c 180.859 488.055 180.672 488.379 180.418 488.653 c 180.172
 488.93 179.863 489.141 179.5 489.289 c 179.141 489.442 178.73 489.516 178.273
 489.516 c 177.824 489.516 177.414 489.438 177.055 489.278 c h
180.328 491.039 m 180.949 490.789 181.48 490.442 181.918 489.996 c 182.355
 489.555 182.699 489.032 182.945 488.438 c 183.191 487.832 183.316 487.184
 183.316 486.473 c 183.316 485.797 183.191 485.153 182.945 484.559 c 182.699
 483.957 182.355 483.438 181.914 482.985 c 181.469 482.539 180.938 482.184
 180.324 481.93 c 179.699 481.668 179.02 481.535 178.273 481.535 c 177.539
 481.535 176.867 481.664 176.254 481.918 c 175.641 482.16 175.109 482.508
 174.66 482.953 c 174.211 483.395 173.867 483.922 173.621 484.52 c 173.375
 485.129 173.254 485.774 173.254 486.473 c 173.254 487.157 173.375 487.797
 173.621 488.399 c 173.867 489.004 174.211 489.528 174.66 489.969 c 175.109
 490.407 175.641 490.762 176.254 491.024 c 176.867 491.278 177.539 491.407
 178.273 491.407 c 179.02 491.407 179.703 491.289 180.328 491.039 c f
48.324 514.442 m 44.617 516.317 40.691 517.727 36.633 518.625 c 36.551 
518.637 36.465 518.617 36.395 518.567 c 36.336 518.516 36.289 518.434 36.289
 518.348 c 36.289 492.762 l 36.289 490.715 34.715 489.117 32.691 489.117
 c 30.676 489.117 29.094 490.715 29.094 492.762 c 29.094 519.434 l 29.094
 519.586 28.984 519.707 28.84 519.711 c 27.762 519.778 26.746 519.813 25.742
 519.813 c 22.867 519.813 19.977 519.563 17.148 519.075 c 17.016 519.051
 16.918 518.93 16.918 518.801 c 16.918 493.903 l 16.918 485.321 23.992 478.332
 32.691 478.332 c 41.395 478.332 48.473 485.321 48.473 493.903 c 48.473 
514.192 l 48.473 514.297 48.418 514.399 48.324 514.442 c f
47.199 483.977 m 47.023 484.196 46.609 484.18 46.422 483.832 c 43.695 478.735
 37.766 475.86 31.836 476.09 c 18.84 476.59 14.34 485.832 14.34 494.364 
c 14.34 518.125 l 14.34 518.207 14.305 518.285 14.227 518.336 c 14.164 518.387
 14.07 518.399 13.992 518.387 c 9.887 517.469 5.898 516.051 2.145 514.168
 c 2.051 514.117 1.992 514.032 1.992 513.926 c 1.992 493.117 l 3.062 473.321
 23.93 468.684 24.668 468.684 c 25.312 468.692 40.918 470.543 46.566 481.828
 c 46.598 481.903 46.633 481.973 46.672 482.047 c 46.73 482.164 46.773 482.278
 46.824 482.379 c 46.918 482.567 47.004 482.758 47.094 482.953 c 47.078 
482.934 47.055 482.91 47.043 482.887 c 47.184 483.231 47.254 483.438 47.258
 483.457 c 47.332 483.723 47.27 483.883 47.199 483.977 c f
Q Q
showpage
%%Trailer
end restore
%%EOF
